computer-organization/alu-design/alu-with-regfile/datapath_a.vcd
$date
	Wed Apr 16 19:17:39 2025
$end
$version
	Icarus Verilog
$end
$timescale
	1s
$end
$scope module datapath_tb_a $end
$var wire 1 ! overflow $end
$var wire 1 " carry $end
$var wire 32 # alu_result [31:0] $end
$var reg 2 $ addr1 [1:0] $end
$var reg 2 % addr2 [1:0] $end
$var reg 2 & addr3 [1:0] $end
$var reg 3 ' alu_control [2:0] $end
$var reg 1 ( clk $end
$var reg 1 ) rst $end
$var reg 1 * wr $end
$var integer 32 + i [31:0] $end
$scope module dut $end
$var wire 2 , addr1 [1:0] $end
$var wire 2 - addr2 [1:0] $end
$var wire 2 . addr3 [1:0] $end
$var wire 3 / alu_control [2:0] $end
$var wire 32 0 alu_result [31:0] $end
$var wire 1 ( clk $end
$var wire 1 ) rst $end
$var wire 1 * wr $end
$var wire 32 1 rd_data2 [31:0] $end
$var wire 32 2 rd_data1 [31:0] $end
$var wire 1 ! overflow $end
$var wire 1 " carry $end
$var wire 32 3 alu_out [31:0] $end
$scope module alu_inst $end
$var wire 3 4 alu_control [2:0] $end
$var wire 32 5 b_inverted [31:0] $end
$var wire 1 6 cin_for_sub $end
$var wire 32 7 xor_result [31:0] $end
$var wire 1 8 sum_msb $end
$var wire 32 9 sub_result [31:0] $end
$var wire 1 : slt_result $end
$var wire 32 ; slt_extended [31:0] $end
$var wire 32 < result [31:0] $end
$var wire 1 ! overflow $end
$var wire 1 = msb_b $end
$var wire 1 > msb_a $end
$var wire 1 ? cout_sub $end
$var wire 1 @ cout_add $end
$var wire 1 " carry $end
$var wire 32 A b [31:0] $end
$var wire 32 B and_result [31:0] $end
$var wire 32 C add_result [31:0] $end
$var wire 32 D a [31:0] $end
$scope module adder $end
$var wire 1 E cin $end
$var wire 33 F temp_sum [32:0] $end
$var wire 32 G sum [31:0] $end
$var wire 1 @ cout $end
$var wire 32 H b [31:0] $end
$var wire 32 I a [31:0] $end
$upscope $end
$scope module and_op $end
$var wire 32 J result [31:0] $end
$var wire 32 K b [31:0] $end
$var wire 32 L a [31:0] $end
$upscope $end
$scope module result_mux $end
$var wire 32 M add_result [31:0] $end
$var wire 32 N and_result [31:0] $end
$var wire 3 O select [2:0] $end
$var wire 32 P xor_result [31:0] $end
$var wire 32 Q sub_result [31:0] $end
$var wire 32 R slt_result [31:0] $end
$var reg 32 S result [31:0] $end
$upscope $end
$scope module slt_extender $end
$var wire 32 T o [31:0] $end
$var wire 1 : i $end
$upscope $end
$scope module slt_op $end
$var wire 1 U and_3_out $end
$var wire 1 V ctrl0 $end
$var wire 1 W ctrl1 $end
$var wire 1 > msb_a $end
$var wire 1 = msb_b $end
$var wire 1 X not_ctrl1 $end
$var wire 1 ! overflow $end
$var wire 1 : slt_result $end
$var wire 1 8 sum_msb $end
$var wire 1 Y xnor_3_out $end
$var wire 1 Z xor1_out $end
$upscope $end
$scope module subtractor $end
$var wire 32 [ b [31:0] $end
$var wire 1 6 cin $end
$var wire 33 \ temp_sum [32:0] $end
$var wire 32 ] sum [31:0] $end
$var wire 1 ? cout $end
$var wire 32 ^ a [31:0] $end
$upscope $end
$scope module xor_op $end
$var wire 32 _ result [31:0] $end
$var wire 32 ` b [31:0] $end
$var wire 32 a a [31:0] $end
$upscope $end
$upscope $end
$scope module rf $end
$var wire 2 b addr1 [1:0] $end
$var wire 2 c addr2 [1:0] $end
$var wire 2 d addr3 [1:0] $end
$var wire 1 ( clk $end
$var wire 32 e data1 [31:0] $end
$var wire 32 f data2 [31:0] $end
$var wire 32 g data3 [31:0] $end
$var wire 1 ) rst $end
$var wire 1 * wr $end
$upscope $end
$upscope $end
$upscope $end
$enddefinitions $end
$comment Show the parameter values. $end
$dumpall
$end
#0
$dumpvars
b100100011010001010110011110000 g
b10010001101000101011001111000 f
b10010001101000101011001111000 e
b0 d
b0 c
b0 b
b10010001101000101011001111000 a
b10010001101000101011001111000 `
b0 _
b10010001101000101011001111000 ^
b0 ]
b100000000000000000000000000000000 \
b11101101110010111010100110000111 [
0Z
1Y
1X
0W
0V
0U
b0 T
b100100011010001010110011110000 S
b0 R
b0 Q
b0 P
b0 O
b10010001101000101011001111000 N
b100100011010001010110011110000 M
b10010001101000101011001111000 L
b10010001101000101011001111000 K
b10010001101000101011001111000 J
b10010001101000101011001111000 I
b10010001101000101011001111000 H
b100100011010001010110011110000 G
b100100011010001010110011110000 F
0E
b10010001101000101011001111000 D
b100100011010001010110011110000 C
b10010001101000101011001111000 B
b10010001101000101011001111000 A
0@
1?
0>
0=
b100100011010001010110011110000 <
b0 ;
0:
b0 9
08
b0 7
16
b11101101110010111010100110000111 5
b0 4
b100100011010001010110011110000 3
b10010001101000101011001111000 2
b10010001101000101011001111000 1
b100100011010001010110011110000 0
b0 /
b0 .
b0 -
b0 ,
bx +
0*
0)
0(
b0 '
b0 &
b0 %
b0 $
b100100011010001010110011110000 #
0"
0!
$end
#5
1(
#10
0(
b0 +
#12
b1 +
#14
b10 +
#15
1(
#16
b11 +
#18
b1 ;
b1 R
b1 T
1:
0!
0U
18
1"
0?
b10011010101111001101111011101111 #
b10011010101111001101111011101111 0
b10011010101111001101111011101111 3
b10011010101111001101111011101111 <
b10011010101111001101111011101111 S
b10011010101111001101111011101111 g
0Z
1@
1=
b0 5
b0 [
b1100101010000110010000100001111 7
b1100101010000110010000100001111 P
b1100101010000110010000100001111 _
b10011010101111001101111011110001 9
b10011010101111001101111011110001 Q
b10011010101111001101111011110001 ]
b10011010101111001101111011110000 B
b10011010101111001101111011110000 J
b10011010101111001101111011110000 N
b10011010101111001101111011101111 C
b10011010101111001101111011101111 G
b10011010101111001101111011101111 M
1>
1*
b11111111111111111111111111111111 1
b11111111111111111111111111111111 A
b11111111111111111111111111111111 H
b11111111111111111111111111111111 K
b11111111111111111111111111111111 `
b11111111111111111111111111111111 f
b10 %
b10 -
b10 c
b10011010101111001101111011110001 \
b110011010101111001101111011101111 F
b10011010101111001101111011110000 2
b10011010101111001101111011110000 D
b10011010101111001101111011110000 I
b10011010101111001101111011110000 L
b10011010101111001101111011110000 ^
b10011010101111001101111011110000 a
b10011010101111001101111011110000 e
b1 $
b1 ,
b1 b
b100 +
#20
0(
#25
1(
#28
0Y
0Z
b1 ;
b1 R
b1 T
1:
18
0X
1W
0"
b1 #
b1 0
b1 3
b1 <
b1 S
b1 g
0=
b11111111111111111111111111111110 5
b11111111111111111111111111111110 [
b11111111111111111111111111111110 7
b11111111111111111111111111111110 P
b11111111111111111111111111111110 _
b11111111111111111111111111111110 9
b11111111111111111111111111111110 Q
b11111111111111111111111111111110 ]
1?
b1 B
b1 J
b1 N
b0 C
b0 G
b0 M
b10 '
b10 /
b10 4
b10 O
b1 &
b1 .
b1 d
b1 1
b1 A
b1 H
b1 K
b1 `
b1 f
b11 %
b11 -
b11 c
b111111111111111111111111111111110 \
b100000000000000000000000000000000 F
b11111111111111111111111111111111 2
b11111111111111111111111111111111 D
b11111111111111111111111111111111 I
b11111111111111111111111111111111 L
b11111111111111111111111111111111 ^
b11111111111111111111111111111111 a
b11111111111111111111111111111111 e
b10 $
b10 ,
b10 b
#30
0(
#35
1(
#38
1Z
b0 ;
b0 R
b0 T
0:
08
b1100101010000110010000100010000 9
b1100101010000110010000100010000 Q
b1100101010000110010000100010000 ]
1V
b1100101010000110010000100010000 #
b1100101010000110010000100010000 0
b1100101010000110010000100010000 3
b1100101010000110010000100010000 <
b1100101010000110010000100010000 S
b1100101010000110010000100010000 g
b1100101010000110010000100010000 7
b1100101010000110010000100010000 P
b1100101010000110010000100010000 _
b10011010101111001101111011101111 B
b10011010101111001101111011101111 J
b10011010101111001101111011101111 N
b10011010101111001101111011101110 C
b10011010101111001101111011101110 G
b10011010101111001101111011101110 M
1=
b101100101010000110010000100010000 \
b1100101010000110010000100010000 5
b1100101010000110010000100010000 [
b11 '
b11 /
b11 4
b11 O
b11 &
b11 .
b11 d
b110011010101111001101111011101110 F
b10011010101111001101111011101111 1
b10011010101111001101111011101111 A
b10011010101111001101111011101111 H
b10011010101111001101111011101111 K
b10011010101111001101111011101111 `
b10011010101111001101111011101111 f
b0 %
b0 -
b0 c
#40
0(
#45
1(
#48
b1 ;
b1 R
b1 T
1:
18
1X
1Z
0W
b10011010101111001101111011110001 #
b10011010101111001101111011110001 0
b10011010101111001101111011110001 3
b10011010101111001101111011110001 <
b10011010101111001101111011110001 S
b10011010101111001101111011110001 g
0=
b10011010101111001101111011101111 5
b10011010101111001101111011101111 [
b1100101010000110010000100010001 7
b1100101010000110010000100010001 P
b1100101010000110010000100010001 _
b10011010101111001101111011110001 9
b10011010101111001101111011110001 Q
b10011010101111001101111011110001 ]
0?
b0 B
b0 J
b0 N
b1100101010000110010000100010001 C
b1100101010000110010000100010001 G
b1100101010000110010000100010001 M
0@
0>
b1 '
b1 /
b1 4
b1 O
b10 &
b10 .
b10 d
b1100101010000110010000100010000 1
b1100101010000110010000100010000 A
b1100101010000110010000100010000 H
b1100101010000110010000100010000 K
b1100101010000110010000100010000 `
b1100101010000110010000100010000 f
b11 %
b11 -
b11 c
b10011010101111001101111011110001 \
b1100101010000110010000100010001 F
b1 2
b1 D
b1 I
b1 L
b1 ^
b1 a
b1 e
b1 $
b1 ,
b1 b
#50
0(
#55
1(
#60
0(
#65
1(
#68
1!
1U
b1 ;
b1 R
b1 T
1:
1Y
08
1"
b110101011110011011110111011111 #
b110101011110011011110111011111 0
b110101011110011011110111011111 3
b110101011110011011110111011111 <
b110101011110011011110111011111 S
b110101011110011011110111011111 g
1Z
b11111111111111111111111111111111 7
b11111111111111111111111111111111 P
b11111111111111111111111111111111 _
b110101011110011011110111011111 9
b110101011110011011110111011111 Q
b110101011110011011110111011111 ]
1?
b11111111111111111111111111111111 C
b11111111111111111111111111111111 G
b11111111111111111111111111111111 M
1>
b100110101011110011011110111011111 \
b11111111111111111111111111111111 F
b10011010101111001101111011101111 2
b10011010101111001101111011101111 D
b10011010101111001101111011101111 I
b10011010101111001101111011101111 L
b10011010101111001101111011101111 ^
b10011010101111001101111011101111 a
b10011010101111001101111011101111 e
b0 $
b0 ,
b0 b
b0 +
0*
#70
0Y
0!
0U
18
0"
b10011010101111001101111011110001 #
b10011010101111001101111011110001 0
b10011010101111001101111011110001 3
b10011010101111001101111011110001 <
b10011010101111001101111011110001 S
b10011010101111001101111011110001 g
1Z
b1100101010000110010000100010001 7
b1100101010000110010000100010001 P
b1100101010000110010000100010001 _
b10011010101111001101111011110001 9
b10011010101111001101111011110001 Q
b10011010101111001101111011110001 ]
0?
b1100101010000110010000100010001 C
b1100101010000110010000100010001 G
b1100101010000110010000100010001 M
0>
b10011010101111001101111011110001 \
b1100101010000110010000100010001 F
b1 2
b1 D
b1 I
b1 L
b1 ^
b1 a
b1 e
b1 $
b1 ,
b1 b
b1 +
0(
#72
1!
1U
b1 ;
b1 R
b1 T
1:
1Y
08
1"
b110101011110011011110111100001 #
b110101011110011011110111100001 0
b110101011110011011110111100001 3
b110101011110011011110111100001 <
b110101011110011011110111100001 S
b110101011110011011110111100001 g
1Z
b11111111111111111111111111100001 7
b11111111111111111111111111100001 P
b11111111111111111111111111100001 _
b110101011110011011110111100001 9
b110101011110011011110111100001 Q
b110101011110011011110111100001 ]
1?
b10000 B
b10000 J
b10000 N
b1 C
b1 G
b1 M
1@
1>
b100110101011110011011110111100001 \
b100000000000000000000000000000001 F
b10011010101111001101111011110001 2
b10011010101111001101111011110001 D
b10011010101111001101111011110001 I
b10011010101111001101111011110001 L
b10011010101111001101111011110001 ^
b10011010101111001101111011110001 a
b10011010101111001101111011110001 e
b10 $
b10 ,
b10 b
b10 +
#74
b0 ;
b0 R
b0 T
0:
0Y
0!
0U
b0 #
b0 0
b0 3
b0 <
b0 S
b0 g
0Z
b0 7
b0 P
b0 _
b0 9
b0 Q
b0 ]
b1100101010000110010000100010000 B
b1100101010000110010000100010000 J
b1100101010000110010000100010000 N
b11001010100001100100001000100000 C
b11001010100001100100001000100000 G
b11001010100001100100001000100000 M
0@
0>
b100000000000000000000000000000000 \
b11001010100001100100001000100000 F
b1100101010000110010000100010000 2
b1100101010000110010000100010000 D
b1100101010000110010000100010000 I
b1100101010000110010000100010000 L
b1100101010000110010000100010000 ^
b1100101010000110010000100010000 a
b1100101010000110010000100010000 e
b11 $
b11 ,
b11 b
b11 +
#75
1(
#76
b100 +
