computer-organization/single-cycle-riscv-processor/single-cycle/processor.vcd
$date
	Sun May 04 14:27:30 2025
$end
$version
	Icarus Verilog
$end
$timescale
	1s
$end
$scope module riscv_processor_tb $end
$var wire 32 ! instr [31:0] $end
$var wire 32 " read_data [31:0] $end
$var wire 32 # write_data [31:0] $end
$var wire 32 $ pc_current [31:0] $end
$var wire 1 % mem_write $end
$var wire 32 & alu_result [31:0] $end
$var reg 1 ' clk $end
$var reg 1 ( reset $end
$var integer 32 ) pc_monitor [31:0] $end
$scope module dut $end
$var wire 1 ' clk $end
$var wire 32 * instr [31:0] $end
$var wire 32 + read_data [31:0] $end
$var wire 1 ( reset $end
$var wire 1 , zero $end
$var wire 32 - write_data [31:0] $end
$var wire 1 . result_src $end
$var wire 1 / reg_write $end
$var wire 1 0 pc_src $end
$var wire 32 1 pc_current [31:0] $end
$var wire 1 % mem_write $end
$var wire 1 2 jump $end
$var wire 2 3 imm_src [1:0] $end
$var wire 1 4 alu_src $end
$var wire 32 5 alu_result [31:0] $end
$var wire 3 6 alu_control [2:0] $end
$scope module cu $end
$var wire 3 7 funct3 [2:0] $end
$var wire 1 8 funct7_5 $end
$var wire 7 9 opcode [6:0] $end
$var wire 1 : reset $end
$var wire 1 , zero $end
$var wire 1 ; result_src_internal $end
$var wire 1 < reg_write_internal $end
$var wire 1 = mem_write_internal $end
$var wire 1 > jump_internal $end
$var wire 2 ? imm_src_internal [1:0] $end
$var wire 1 @ branch_internal $end
$var wire 1 A alu_src_internal $end
$var wire 2 B alu_op_internal [1:0] $end
$var wire 3 C alu_control_internal [2:0] $end
$var reg 3 D alu_control [2:0] $end
$var reg 1 4 alu_src $end
$var reg 2 E imm_src [1:0] $end
$var reg 1 2 jump $end
$var reg 1 % mem_write $end
$var reg 1 0 pc_src $end
$var reg 1 / reg_write $end
$var reg 1 . result_src $end
$scope module ad $end
$var wire 3 F funct3 [2:0] $end
$var wire 1 8 funct7_5 $end
$var wire 2 G alu_op [1:0] $end
$var reg 3 H alu_control [2:0] $end
$upscope $end
$scope module md $end
$var wire 7 I opcode [6:0] $end
$var wire 1 : reset $end
$var reg 2 J alu_op [1:0] $end
$var reg 1 A alu_src $end
$var reg 1 @ branch $end
$var reg 2 K imm_src [1:0] $end
$var reg 1 > jump $end
$var reg 1 = mem_write $end
$var reg 1 < reg_write $end
$var reg 1 ; result_src $end
$upscope $end
$upscope $end
$scope module dp $end
$var wire 3 L alu_control [2:0] $end
$var wire 1 4 alu_src $end
$var wire 1 ' clk $end
$var wire 2 M imm_src [1:0] $end
$var wire 32 N instr [31:0] $end
$var wire 1 2 jump $end
$var wire 1 % mem_write $end
$var wire 1 0 pc_src $end
$var wire 32 O read_data [31:0] $end
$var wire 1 / reg_write $end
$var wire 1 ( reset $end
$var wire 1 . result_src $end
$var wire 1 , zero $end
$var wire 32 P write_data [31:0] $end
$var wire 32 Q src_b [31:0] $end
$var wire 32 R src_a [31:0] $end
$var wire 32 S result [31:0] $end
$var wire 32 T pc_target [31:0] $end
$var wire 32 U pc_plus4 [31:0] $end
$var wire 32 V pc_next [31:0] $end
$var wire 32 W pc_current [31:0] $end
$var wire 32 X imm_ext [31:0] $end
$var wire 32 Y alu_result [31:0] $end
$scope module imm_generator $end
$var wire 2 Z imm_src [1:0] $end
$var wire 32 [ instr [31:0] $end
$var reg 32 \ imm_ext [31:0] $end
$upscope $end
$scope module main_alu $end
$var wire 3 ] alu_control [2:0] $end
$var wire 32 ^ src_b [31:0] $end
$var wire 1 , zero $end
$var wire 32 _ sub_result [31:0] $end
$var wire 1 ` sub_cout $end
$var wire 32 a src_a [31:0] $end
$var wire 32 b setlessthan_result [31:0] $end
$var wire 32 c or_result [31:0] $end
$var wire 32 d and_result [31:0] $end
$var wire 32 e alu_result [31:0] $end
$var wire 32 f add_result [31:0] $end
$var wire 1 g add_cout $end
$var reg 32 h result_mux [31:0] $end
$scope module adder $end
$var wire 32 i b [31:0] $end
$var wire 1 j cin $end
$var wire 33 k temp_sum [32:0] $end
$var wire 32 l sum [31:0] $end
$var wire 1 g cout $end
$var wire 32 m a [31:0] $end
$upscope $end
$scope module and_op $end
$var wire 32 n b [31:0] $end
$var wire 32 o result [31:0] $end
$var wire 32 p a [31:0] $end
$upscope $end
$scope module or_op $end
$var wire 32 q b [31:0] $end
$var wire 32 r result [31:0] $end
$var wire 32 s a [31:0] $end
$upscope $end
$scope module slt_op $end
$var wire 32 t b [31:0] $end
$var wire 32 u result [31:0] $end
$var wire 32 v difference [31:0] $end
$var wire 1 w cout $end
$var wire 32 x a [31:0] $end
$scope module sub $end
$var wire 32 y b [31:0] $end
$var wire 32 z difference [31:0] $end
$var wire 1 w cout $end
$var wire 32 { b_complement [31:0] $end
$var wire 32 | a [31:0] $end
$scope module sub $end
$var wire 32 } b [31:0] $end
$var wire 1 ~ cin $end
$var wire 33 !" temp_sum [32:0] $end
$var wire 32 "" sum [31:0] $end
$var wire 1 w cout $end
$var wire 32 #" a [31:0] $end
$upscope $end
$upscope $end
$upscope $end
$scope module subtractor $end
$var wire 32 $" b [31:0] $end
$var wire 32 %" difference [31:0] $end
$var wire 1 ` cout $end
$var wire 32 &" b_complement [31:0] $end
$var wire 32 '" a [31:0] $end
$scope module sub $end
$var wire 32 (" b [31:0] $end
$var wire 1 )" cin $end
$var wire 33 *" temp_sum [32:0] $end
$var wire 32 +" sum [31:0] $end
$var wire 1 ` cout $end
$var wire 32 ," a [31:0] $end
$upscope $end
$upscope $end
$upscope $end
$scope module pc $end
$var wire 1 ' clk $end
$var wire 32 -" pc_next [31:0] $end
$var wire 1 ( reset $end
$var reg 32 ." pc_current [31:0] $end
$upscope $end
$scope module pc_plus4_adder $end
$var wire 32 /" a [31:0] $end
$var wire 32 0" b [31:0] $end
$var wire 1 1" cin $end
$var wire 33 2" temp_sum [32:0] $end
$var wire 32 3" sum [31:0] $end
$var wire 1 4" cout $end
$upscope $end
$scope module pc_target_adder $end
$var wire 32 5" a [31:0] $end
$var wire 32 6" b [31:0] $end
$var wire 1 7" cin $end
$var wire 33 8" temp_sum [32:0] $end
$var wire 32 9" sum [31:0] $end
$var wire 1 :" cout $end
$upscope $end
$scope module rf $end
$var wire 1 ' clk $end
$var wire 5 ;" read_reg1 [4:0] $end
$var wire 5 <" read_reg2 [4:0] $end
$var wire 1 / reg_write $end
$var wire 1 ( reset $end
$var wire 32 =" write_data [31:0] $end
$var wire 5 >" write_reg [4:0] $end
$var wire 32 ?" read_data2 [31:0] $end
$var wire 32 @" read_data1 [31:0] $end
$var integer 32 A" i [31:0] $end
$upscope $end
$upscope $end
$upscope $end
$scope begin $ivl_for_loop0 $end
$var integer 32 B" i [31:0] $end
$upscope $end
$scope begin $ivl_for_loop1 $end
$var integer 32 C" i [31:0] $end
$upscope $end
$scope task display_registers $end
$upscope $end
$upscope $end
$enddefinitions $end
$comment Show the parameter values. $end
$dumpall
$end
#0
$dumpvars
b100000000 C"
b100000000 B"
bx A"
b0 @"
bx ?"
b1 >"
b101 ="
b101 <"
b0 ;"
0:"
b101 9"
b101 8"
07"
b101 6"
b0 5"
04"
b100 3"
b100 2"
01"
b100 0"
b0 /"
b0 ."
b100 -"
b0 ,"
b11111111111111111111111111111011 +"
b11111111111111111111111111111011 *"
0)"
b11111111111111111111111111111011 ("
b0 '"
b11111111111111111111111111111011 &"
b11111111111111111111111111111011 %"
b101 $"
b0 #"
b11111111111111111111111111111011 ""
b11111111111111111111111111111011 !"
0~
b11111111111111111111111111111011 }
b0 |
b11111111111111111111111111111011 {
b11111111111111111111111111111011 z
b101 y
b0 x
0w
b11111111111111111111111111111011 v
b1 u
b101 t
b0 s
b101 r
b101 q
b0 p
b0 o
b101 n
b0 m
b101 l
b101 k
0j
b101 i
b101 h
0g
b101 f
b101 e
b0 d
b101 c
b1 b
b0 a
0`
b11111111111111111111111111111011 _
b101 ^
b0 ]
b101 \
b10100000000000010010011 [
b0 Z
b101 Y
b101 X
b0 W
b100 V
b100 U
b101 T
b101 S
b0 R
b101 Q
bx P
b0 O
b10100000000000010010011 N
b0 M
b0 L
b0 K
b10 J
b10011 I
b0 H
b10 G
b0 F
b0 E
b0 D
b0 C
b10 B
1A
0@
b0 ?
0>
0=
1<
0;
z:
b10011 9
08
b0 7
b0 6
b101 5
14
b0 3
02
b0 1
00
1/
0.
bx -
0,
b0 +
b10100000000000010010011 *
b0 )
1(
0'
b101 &
0%
b0 $
bx #
b0 "
b10100000000000010010011 !
$end
#5
b0 #
b0 -
b0 P
b0 ?"
b100000 A"
1'
#10
0'
0(
#15
b1010 S
b1010 ="
b1010 &
b1010 5
b1010 Y
b1010 e
b1010 h
b11111111111111111111111111110110 v
b11111111111111111111111111110110 z
b11111111111111111111111111110110 ""
b11111111111111111111111111110110 _
b11111111111111111111111111110110 %"
b11111111111111111111111111110110 +"
b1010 f
b1010 l
b1010 c
b1010 r
b11111111111111111111111111110110 !"
b11111111111111111111111111110110 {
b11111111111111111111111111110110 }
b11111111111111111111111111110110 *"
b11111111111111111111111111110110 &"
b11111111111111111111111111110110 ("
b1010 k
b1010 Q
b1010 ^
b1010 i
b1010 n
b1010 q
b1010 t
b1010 y
b1010 $"
b1000 V
b1000 -"
b1010 <"
b10 >"
b1010 X
b1010 \
b1010 6"
b1000 U
b1000 3"
b1110 T
b1110 9"
b101000000000000100010011 !
b101000000000000100010011 *
b101000000000000100010011 N
b101000000000000100010011 [
b1000 2"
b1110 8"
b100 $
b100 1
b100 W
b100 ."
b100 /"
b100 5"
1'
#20
0'
#25
b1111 S
b1111 ="
b1 b
b1 u
b1111 &
b1111 5
b1111 Y
b1111 e
b1111 h
0w
0`
04
bx 3
bx E
bx M
bx Z
b11111111111111111111111111111011 _
b11111111111111111111111111111011 %"
b11111111111111111111111111111011 +"
b11111111111111111111111111111011 v
b11111111111111111111111111111011 z
b11111111111111111111111111111011 ""
b1111 f
b1111 l
b1111 c
b1111 r
b11111111111111111111111111110110 {
b11111111111111111111111111110110 }
b11111111111111111111111111110110 &"
b11111111111111111111111111110110 ("
0A
bx ?
bx K
b11111111111111111111111111111011 *"
b11111111111111111111111111111011 !"
b101 R
b101 a
b101 m
b101 p
b101 s
b101 x
b101 |
b101 #"
b101 '"
b101 ,"
b101 @"
b1010 #
b1010 -
b1010 P
b1010 ?"
b1111 k
b1010 Q
b1010 ^
b1010 i
b1010 n
b1010 q
b1010 t
b1010 y
b1010 $"
b1100 V
b1100 -"
b110011 9
b110011 I
b1 ;"
b10 <"
b11 >"
b0 X
b0 \
b0 6"
b1100 U
b1100 3"
b1000 T
b1000 9"
b1000001000000110110011 !
b1000001000000110110011 *
b1000001000000110110011 N
b1000001000000110110011 [
b1100 2"
b1000 8"
b1000 $
b1000 1
b1000 W
b1000 ."
b1000 /"
b1000 5"
b100 )
1'
#30
0'
#35
b11111111111111111111111111111011 S
b11111111111111111111111111111011 ="
b11111111111111111111111111111011 &
b11111111111111111111111111111011 5
b11111111111111111111111111111011 Y
b11111111111111111111111111111011 e
b11111111111111111111111111111011 h
b1 6
b1 D
b1 L
b1 ]
b1 C
b1 H
b10000 V
b10000 -"
18
b100 >"
b10000 U
b10000 3"
b1100 T
b1100 9"
b1000000001000001000001000110011 !
b1000000001000001000001000110011 *
b1000000001000001000001000110011 N
b1000000001000001000001000110011 [
b10000 2"
b1100 8"
b1100 $
b1100 1
b1100 W
b1100 ."
b1100 /"
b1100 5"
b1000 )
1'
#40
0'
#45
b0 S
b0 ="
b10101011110011011110111100000001 "
b10101011110011011110111100000001 +
b10101011110011011110111100000001 O
1,
b0 &
b0 5
b0 Y
b0 e
b0 h
b10 6
b10 D
b10 L
b10 ]
b10 C
b10 H
b10100 V
b10100 -"
b111 7
b111 F
08
b101 >"
b10100 U
b10100 3"
b10000 T
b10000 9"
b1000001111001010110011 !
b1000001111001010110011 *
b1000001111001010110011 N
b1000001111001010110011 [
b10100 2"
b10000 8"
b10000 $
b10000 1
b10000 W
b10000 ."
b10000 /"
b10000 5"
b1100 )
1'
#50
0'
#55
b1111 S
b1111 ="
b0 "
b0 +
b0 O
0,
b1111 &
b1111 5
b1111 Y
b1111 e
b1111 h
b11 6
b11 D
b11 L
b11 ]
b11 C
b11 H
b11000 V
b11000 -"
b110 7
b110 F
b110 >"
b11000 U
b11000 3"
b10100 T
b10100 9"
b1000001110001100110011 !
b1000001110001100110011 *
b1000001110001100110011 N
b1000001110001100110011 [
b11000 2"
b10100 8"
b10100 $
b10100 1
b10100 W
b10100 ."
b10100 /"
b10100 5"
b10000 )
1'
#60
0'
#65
b1 S
b1 ="
b10101011110011011110111100000001 "
b10101011110011011110111100000001 +
b10101011110011011110111100000001 O
b1 &
b1 5
b1 Y
b1 e
b1 h
b101 6
b101 D
b101 L
b101 ]
b101 C
b101 H
b11100 V
b11100 -"
b10 7
b10 F
b111 >"
b11100 U
b11100 3"
b11000 T
b11000 9"
b1000001010001110110011 !
b1000001010001110110011 *
b1000001010001110110011 N
b1000001010001110110011 [
b11100 2"
b11000 8"
b11000 $
b11000 1
b11000 W
b11000 ."
b11000 /"
b11000 5"
b10100 )
1'
#70
0'
#75
b0 "
b0 +
b0 O
b0x0x0x S
b0x0x0x ="
b10101 c
b10101 r
b10101 &
b10101 5
b10101 Y
b10101 e
b10101 h
b11111111111111111111111111110101 v
b11111111111111111111111111110101 z
b11111111111111111111111111110101 ""
b11111111111111111111111111110101 _
b11111111111111111111111111110101 %"
b11111111111111111111111111110101 +"
b0 6
b0 D
b0 L
b0 ]
b10000 X
b10000 \
b10000 6"
b10101 f
b10101 l
b0 d
b0 o
b11111111111111111111111111110101 !"
b11111111111111111111111111110000 {
b11111111111111111111111111110000 }
b11111111111111111111111111110101 *"
b11111111111111111111111111110000 &"
b11111111111111111111111111110000 ("
b0 C
b0 H
x.
1%
14
b1 3
b1 E
b1 M
b1 Z
0/
b10101 k
b10000 Q
b10000 ^
b10000 i
b10000 n
b10000 q
b10000 t
b10000 y
b10000 $"
b0 B
b0 G
b0 J
x;
1=
1A
b1 ?
b1 K
0<
b1111 #
b1111 -
b1111 P
b1111 ?"
b100000 V
b100000 -"
b100011 9
b100011 I
b11 <"
b10000 >"
b100000 U
b100000 3"
b101100 T
b101100 9"
b1100001010100000100011 !
b1100001010100000100011 *
b1100001010100000100011 N
b1100001010100000100011 [
b100000 2"
b101100 8"
b11100 $
b11100 1
b11100 W
b11100 ."
b11100 /"
b11100 5"
b11000 )
1'
#80
0'
#85
b11111111111111111111111111111101 v
b11111111111111111111111111111101 z
b11111111111111111111111111111101 ""
b11111111111111111111111111111101 _
b11111111111111111111111111111101 %"
b11111111111111111111111111111101 +"
b11 &
b11 5
b11 Y
b11 e
b11 h
0.
0%
b0 3
b0 E
b0 M
b0 Z
1/
b11 f
b11 l
b11 c
b11 r
b11111111111111111111111111111101 {
b11111111111111111111111111111101 }
b11111111111111111111111111111101 &"
b11111111111111111111111111111101 ("
b10 B
b10 G
b10 J
0;
0=
b0 ?
b0 K
1<
b11111111111111111111111111111101 *"
b11111111111111111111111111111101 !"
b0 R
b0 a
b0 m
b0 p
b0 s
b0 x
b0 |
b0 #"
b0 '"
b0 ,"
b0 @"
b11 k
b11 Q
b11 ^
b11 i
b11 n
b11 q
b11 t
b11 y
b11 $"
b100100 V
b100100 -"
b10011 9
b10011 I
b0 7
b0 F
b0 ;"
b1011 >"
b11 X
b11 \
b11 6"
b100100 U
b100100 3"
b100011 T
b100011 9"
b1100000000010110010011 !
b1100000000010110010011 *
b1100000000010110010011 N
b1100000000010110010011 [
b100100 2"
b100011 8"
b100000 $
b100000 1
b100000 W
b100000 ."
b100000 /"
b100000 5"
b11 S
b11 ="
b10101011110011011110111100000001 "
b10101011110011011110111100000001 +
b10101011110011011110111100000001 O
b11100 )
1'
#90
0'
#95
b1111 "
b1111 +
b1111 O
b0xx11x S
b0xx11x ="
b10110 &
b10110 5
b10110 Y
b10110 e
b10110 h
b0 6
b0 D
b0 L
b0 ]
x.
1%
b1 3
b1 E
b1 M
b1 Z
0/
b11111111111111111111111111111110 _
b11111111111111111111111111111110 %"
b11111111111111111111111111111110 +"
b11111111111111111111111111111110 v
b11111111111111111111111111111110 z
b11111111111111111111111111111110 ""
b10110 f
b10110 l
b1000 d
b1000 o
b1110 c
b1110 r
b11111111111111111111111111110100 {
b11111111111111111111111111110100 }
b11111111111111111111111111110100 &"
b11111111111111111111111111110100 ("
b0 B
b0 G
b0 J
x;
1=
b1 ?
b1 K
0<
b0 C
b0 H
b11111111111111111111111111111110 *"
b11111111111111111111111111111110 !"
b1010 R
b1010 a
b1010 m
b1010 p
b1010 s
b1010 x
b1010 |
b1010 #"
b1010 '"
b1010 ,"
b1010 @"
b11 #
b11 -
b11 P
b11 ?"
b10110 k
b1100 Q
b1100 ^
b1100 i
b1100 n
b1100 q
b1100 t
b1100 y
b1100 $"
b101000 V
b101000 -"
b100011 9
b100011 I
b10 7
b10 F
b10 ;"
b1011 <"
b1100 >"
b1100 X
b1100 \
b1100 6"
b101000 U
b101000 3"
b110000 T
b110000 9"
b101100010010011000100011 !
b101100010010011000100011 *
b101100010010011000100011 N
b101100010010011000100011 [
b101000 2"
b110000 8"
b100100 $
b100100 1
b100100 W
b100100 ."
b100100 /"
b100100 5"
b100000 )
1'
#100
0'
#105
b1 b
b1 u
b10110 &
b10110 5
b10110 Y
b10110 e
b10110 h
b11111111111111111111111111111110 v
b11111111111111111111111111111110 z
b11111111111111111111111111111110 ""
0w
b11111111111111111111111111111110 _
b11111111111111111111111111111110 %"
b11111111111111111111111111111110 +"
0`
1.
0%
b0 3
b0 E
b0 M
b0 Z
1/
b10110 f
b10110 l
b1000 d
b1000 o
b1110 c
b1110 r
b11111111111111111111111111111110 !"
b11111111111111111111111111110100 {
b11111111111111111111111111110100 }
b11111111111111111111111111111110 *"
b11111111111111111111111111110100 &"
b11111111111111111111111111110100 ("
1;
0=
b0 ?
b0 K
1<
b0 #
b0 -
b0 P
b0 ?"
b10110 k
b1100 Q
b1100 ^
b1100 i
b1100 n
b1100 q
b1100 t
b1100 y
b1100 $"
b101100 V
b101100 -"
b11 9
b11 I
b1100 <"
b1010 >"
b1100 X
b1100 \
b1100 6"
b101100 U
b101100 3"
b110100 T
b110100 9"
b110000010010010100000011 !
b110000010010010100000011 *
b110000010010010100000011 N
b110000010010010100000011 [
b101100 2"
b110100 8"
b101000 $
b101000 1
b101000 W
b101000 ."
b101000 /"
b101000 5"
b11 S
b11 ="
b11 "
b11 +
b11 O
b100100 )
1'
#110
0'
#115
b0x b
b0x u
xw
x`
1,
xg
b10101011110011011110111100000001 "
b10101011110011011110111100000001 +
b10101011110011011110111100000001 O
bx 6
bx D
bx L
bx ]
b110000 S
b110000 ="
b0 &
b0 5
b0 Y
b0 e
b0 h
bx C
bx H
12
10
0.
x4
b11 3
b11 E
b11 M
b11 Z
bx _
bx %"
bx +"
bx v
bx z
bx ""
bx f
bx l
b0 d
b0 o
b0x000 c
b0x000 r
bx {
bx }
bx &"
bx ("
1>
bx B
bx G
bx J
0;
xA
b11 ?
b11 K
bx *"
bx !"
b0 R
b0 a
b0 m
b0 p
b0 s
b0 x
b0 |
b0 #"
b0 '"
b0 ,"
b0 @"
bx k
b0x000 Q
b0x000 ^
b0x000 i
b0x000 n
b0x000 q
b0x000 t
b0x000 y
b0x000 $"
b110100 V
b110100 -"
b1101111 9
b1101111 I
b0 7
b0 F
b0 ;"
b1000 <"
b1 >"
b1000 X
b1000 \
b1000 6"
b110000 U
b110000 3"
b110100 T
b110100 9"
b100000000000000011101111 !
b100000000000000011101111 *
b100000000000000011101111 N
b100000000000000011101111 [
b110000 2"
b110100 8"
b101100 $
b101100 1
b101100 W
b101100 ."
b101100 /"
b101100 5"
b101000 )
1'
#120
0'
#125
b0 b
b0 u
b101101 v
b101101 z
b101101 ""
1w
b101101 _
b101101 %"
b101101 +"
1`
b0 "
b0 +
b0 O
b110011 f
b110011 l
0g
b100000000000000000000000000101101 !"
b11111111111111111111111111111101 {
b11111111111111111111111111111101 }
b100000000000000000000000000101101 *"
b11111111111111111111111111111101 &"
b11111111111111111111111111111101 ("
0,
b110011 &
b110011 5
b110011 Y
b110011 e
b110011 h
b11 6
b11 D
b11 L
b11 ]
b110011 k
b11 C
b11 H
02
00
14
b0 3
b0 E
b0 M
b0 Z
b110011 c
b110011 r
0>
b10 B
b10 G
b10 J
1A
b0 ?
b0 K
b110000 R
b110000 a
b110000 m
b110000 p
b110000 s
b110000 x
b110000 |
b110000 #"
b110000 '"
b110000 ,"
b110000 @"
b1111 #
b1111 -
b1111 P
b1111 ?"
b11 Q
b11 ^
b11 i
b11 n
b11 q
b11 t
b11 y
b11 $"
b110011 S
b110011 ="
b111000 V
b111000 -"
b10011 9
b10011 I
b110 7
b110 F
b1 ;"
b11 <"
b110 >"
b11 X
b11 \
b11 6"
b111000 U
b111000 3"
b110111 T
b110111 9"
b1100001110001100010011 !
b1100001110001100010011 *
b1100001110001100010011 N
b1100001110001100010011 [
b111000 2"
b110111 8"
b110100 $
b110100 1
b110100 W
b110100 ."
b110100 /"
b110100 5"
b101100 )
1'
#130
0'
#135
b0 S
b0 ="
b10101011110011011110111100000001 "
b10101011110011011110111100000001 +
b10101011110011011110111100000001 O
1,
b0 &
b0 5
b0 Y
b0 e
b0 h
b10 6
b10 D
b10 L
b10 ]
b10 C
b10 H
b111100 V
b111100 -"
b111 7
b111 F
b111 >"
b111100 U
b111100 3"
b111011 T
b111011 9"
b1100001111001110010011 !
b1100001111001110010011 *
b1100001111001110010011 N
b1100001111001110010011 [
b111100 2"
b111011 8"
b111000 $
b111000 1
b111000 W
b111000 ."
b111000 /"
b111000 5"
b110100 )
1'
#140
0'
#145
b1 S
b1 ="
b1 b
b1 u
0,
b1 &
b1 5
b1 Y
b1 e
b1 h
b0 6
b0 D
b0 L
b0 ]
b11111111111111111111111111111111 _
b11111111111111111111111111111111 %"
b11111111111111111111111111111111 +"
0`
b11111111111111111111111111111111 v
b11111111111111111111111111111111 z
b11111111111111111111111111111111 ""
0w
b1 f
b1 l
b1 c
b1 r
b11111111111111111111111111111111 {
b11111111111111111111111111111111 }
b11111111111111111111111111111111 &"
b11111111111111111111111111111111 ("
b0 C
b0 H
b11111111111111111111111111111111 *"
b11111111111111111111111111111111 !"
b0 R
b0 a
b0 m
b0 p
b0 s
b0 x
b0 |
b0 #"
b0 '"
b0 ,"
b0 @"
b110000 #
b110000 -
b110000 P
b110000 ?"
b1 k
b1 Q
b1 ^
b1 i
b1 n
b1 q
b1 t
b1 y
b1 $"
b1000000 V
b1000000 -"
b0 7
b0 F
b0 ;"
b1 <"
b1111 >"
b1 X
b1 \
b1 6"
b1000000 U
b1000000 3"
b111101 T
b111101 9"
b100000000011110010011 !
b100000000011110010011 *
b100000000011110010011 N
b100000000011110010011 [
b1000000 2"
b111101 8"
b111100 $
b111100 1
b111100 W
b111100 ."
b111100 /"
b111100 5"
b111000 )
1'
#150
0'
#155
bx0xx S
bx0xx ="
b0 "
b0 +
b0 O
b1 6
b1 D
b1 L
b1 ]
b1 b
b1 u
b11111111111111111111111111111011 &
b11111111111111111111111111111011 5
b11111111111111111111111111111011 Y
b11111111111111111111111111111011 e
b11111111111111111111111111111011 h
b1 C
b1 H
x.
04
b10 3
b10 E
b10 M
b10 Z
0/
b11111111111111111111111111111011 _
b11111111111111111111111111111011 %"
b11111111111111111111111111111011 +"
0`
b11111111111111111111111111111011 v
b11111111111111111111111111111011 z
b11111111111111111111111111111011 ""
0w
b11001 f
b11001 l
b1010 d
b1010 o
b1111 c
b1111 r
b11111111111111111111111111110001 {
b11111111111111111111111111110001 }
b11111111111111111111111111110001 &"
b11111111111111111111111111110001 ("
b1 B
b1 G
b1 J
1@
x;
0A
b10 ?
b10 K
0<
b11111111111111111111111111111011 *"
b11111111111111111111111111111011 !"
b1010 R
b1010 a
b1010 m
b1010 p
b1010 s
b1010 x
b1010 |
b1010 #"
b1010 '"
b1010 ,"
b1010 @"
b1111 #
b1111 -
b1111 P
b1111 ?"
b11001 k
b1111 Q
b1111 ^
b1111 i
b1111 n
b1111 q
b1111 t
b1111 y
b1111 $"
b1000100 V
b1000100 -"
b1100011 9
b1100011 I
b10 ;"
b11 <"
b1000 >"
b1000 X
b1000 \
b1000 6"
b1000100 U
b1000100 3"
b1001000 T
b1001000 9"
b1100010000010001100011 !
b1100010000010001100011 *
b1100010000010001100011 N
b1100010000010001100011 [
b1000100 2"
b1001000 8"
b1000000 $
b1000000 1
b1000000 W
b1000000 ."
b1000000 /"
b1000000 5"
b111100 )
1'
#160
0'
#165
b10101011110011011110111100000001 "
b10101011110011011110111100000001 +
b10101011110011011110111100000001 O
b10 S
b10 ="
b0 6
b0 D
b0 L
b0 ]
b10 &
b10 5
b10 Y
b10 e
b10 h
b11111111111111111111111111111110 {
b11111111111111111111111111111110 }
b11111111111111111111111111111110 &"
b11111111111111111111111111111110 ("
b0 C
b0 H
0.
14
b0 3
b0 E
b0 M
b0 Z
1/
b11111111111111111111111111111110 _
b11111111111111111111111111111110 %"
b11111111111111111111111111111110 +"
b11111111111111111111111111111110 v
b11111111111111111111111111111110 z
b11111111111111111111111111111110 ""
b10 c
b10 r
b0 d
b0 o
b10 f
b10 l
b10 Q
b10 ^
b10 i
b10 n
b10 q
b10 t
b10 y
b10 $"
b10 B
b10 G
b10 J
0@
0;
1A
b0 ?
b0 K
1<
b11111111111111111111111111111110 *"
b11111111111111111111111111111110 !"
b10 k
b0 R
b0 a
b0 m
b0 p
b0 s
b0 x
b0 |
b0 #"
b0 '"
b0 ,"
b0 @"
b1010 #
b1010 -
b1010 P
b1010 ?"
b1001000 V
b1001000 -"
b10011 9
b10011 I
b0 ;"
b10 <"
b10000 >"
b10 X
b10 \
b10 6"
b1001000 U
b1001000 3"
b1000110 T
b1000110 9"
b1000000000100000010011 !
b1000000000100000010011 *
b1000000000100000010011 N
b1000000000100000010011 [
b1001000 2"
b1000110 8"
b1000100 $
b1000100 1
b1000100 W
b1000100 ."
b1000100 /"
b1000100 5"
b1000000 )
1'
#170
0'
#175
b0x b
b0x u
xw
x`
1,
xg
b10101011110011011110111100000001 "
b10101011110011011110111100000001 +
b10101011110011011110111100000001 O
bx 6
bx D
bx L
bx ]
b1001100 S
b1001100 ="
b0 &
b0 5
b0 Y
b0 e
b0 h
bx v
bx z
bx ""
bx _
bx %"
bx +"
bx C
bx H
12
10
x4
b11 3
b11 E
b11 M
b11 Z
bx f
bx l
b0x00x0 c
b0x00x0 r
bx !"
bx {
bx }
bx *"
bx &"
bx ("
1>
bx B
bx G
bx J
xA
b11 ?
b11 K
b10 #
b10 -
b10 P
b10 ?"
bx k
b0x00x0 Q
b0x00x0 ^
b0x00x0 i
b0x00x0 n
b0x00x0 q
b0x00x0 t
b0x00x0 y
b0x00x0 $"
b1011000 V
b1011000 -"
b1101111 9
b1101111 I
b10000 <"
b1 >"
b10000 X
b10000 \
b10000 6"
b1001100 U
b1001100 3"
b1011000 T
b1011000 9"
b1000000000000000011101111 !
b1000000000000000011101111 *
b1000000000000000011101111 N
b1000000000000000011101111 [
b1001100 2"
b1011000 8"
b1001000 $
b1001000 1
b1001000 W
b1001000 ."
b1001000 /"
b1001000 5"
b1000100 )
1'
#180
0'
#185
b1 b
b1 u
b11111111111111111111111111111010 v
b11111111111111111111111111111010 z
b11111111111111111111111111111010 ""
0w
b11111111111111111111111111111010 _
b11111111111111111111111111111010 %"
b11111111111111111111111111111010 +"
0`
b0 "
b0 +
b0 O
b110 f
b110 l
0g
b11111111111111111111111111111010 !"
b11111111111111111111111111111010 {
b11111111111111111111111111111010 }
b11111111111111111111111111111010 *"
b11111111111111111111111111111010 &"
b11111111111111111111111111111010 ("
0,
b110 &
b110 5
b110 Y
b110 e
b110 h
b0 6
b0 D
b0 L
b0 ]
b110 k
b0 C
b0 H
02
00
14
b0 3
b0 E
b0 M
b0 Z
b110 c
b110 r
0>
b10 B
b10 G
b10 J
1A
b0 ?
b0 K
b110011 #
b110011 -
b110011 P
b110011 ?"
b110 Q
b110 ^
b110 i
b110 n
b110 q
b110 t
b110 y
b110 $"
b110 S
b110 ="
b1011100 V
b1011100 -"
b10011 9
b10011 I
b110 <"
b10001 >"
b110 X
b110 \
b110 6"
b1011100 U
b1011100 3"
b1011110 T
b1011110 9"
b11000000000100010010011 !
b11000000000100010010011 *
b11000000000100010010011 N
b11000000000100010010011 [
b1011100 2"
b1011110 8"
b1011000 $
b1011000 1
b1011000 W
b1011000 ."
b1011000 /"
b1011000 5"
b1001000 )
1'
#190
0'
#195
b0 S
b0 ="
b10101011110011011110111100000001 "
b10101011110011011110111100000001 +
b10101011110011011110111100000001 O
b0 b
b0 u
1,
b0 &
b0 5
b0 Y
b0 e
b0 h
b0 v
b0 z
b0 ""
b0 _
b0 %"
b0 +"
b0 f
b0 l
b0 c
b0 r
b0 !"
b0 {
b0 }
b0 *"
b0 &"
b0 ("
b0 #
b0 -
b0 P
b0 ?"
b0 k
b0 Q
b0 ^
b0 i
b0 n
b0 q
b0 t
b0 y
b0 $"
b1100000 V
b1100000 -"
b0 <"
b0 >"
b0 X
b0 \
b0 6"
b1100000 U
b1100000 3"
b1011100 T
b1011100 9"
b10011 !
b10011 *
b10011 N
b10011 [
b1100000 2"
b1011100 8"
b1011100 $
b1011100 1
b1011100 W
b1011100 ."
b1011100 /"
b1011100 5"
b1011000 )
1'
#200
0'
